…
## dplyr verbs

* `sample_frac` -- sample a given percentage of rows


```r
sample_frac(gapminder, 0.5)
```



```
## # A tibble: 852 × 6
##        country continent  year lifeExp      pop gdpPercap
##         <fctr>    <fctr> <int>   <dbl>    <int>     <dbl>
## 1       Taiwan      Asia  1977  70.590 16785196  5596.520
## 2  Puerto Rico  Americas  1972  72.160  2847132  9123.042
## 3      Croatia    Europe  1957  64.770  3991242  4338.232
## 4       Panama  Americas  2002  74.712  2990875  7356.032
## 5       Canada  Americas  1992  77.950 28523502 26342.884
## 6       Poland    Europe  1982  71.320 36227381  8451.531
## 7  Puerto Rico  Americas  1957  68.540  2260000  3907.156
## 8        Chile  Americas  1982  70.565 11487112  5095.666
## 9      Belgium    Europe  1957  69.240  8989111  9714.961
## 10     Myanmar      Asia  1967  49.379 25870271   349.000
## # ... with 842 more rows
```
…
```r
arrange(gapminder, desc(year), lifeExp)
```



```
## # A tibble: 1,704 × 6
##                     country continent  year lifeExp      pop
##                      <fctr>    <fctr> <int>   <dbl>    <int>
## 1                 Swaziland    Africa  2007  39.613  1133066
## 2                Mozambique    Africa  2007  42.082 19951656
## 3                    Zambia    Africa  2007  42.384 11746035
## 4              Sierra Leone    Africa  2007  42.568  6144562
## 5                   Lesotho    Africa  2007  42.592  2012649
## 6                    Angola    Africa  2007  42.731 12420476
## 7                  Zimbabwe    Africa  2007  43.487 12311143
## 8               Afghanistan      Asia  2007  43.828 31889923
## 9  Central African Republic    Africa  2007  44.741  4369038
## 10                  Liberia    Africa  2007  45.678  3193942
## # ... with 1,694 more rows, and 1 more variables: gdpPercap <dbl>
```
…
